{
    "articles": [
       {
          "title": "Title from fixture",
          "slug": "aaa-moiu9r",
          "body": "I am Body from fixture",
          "createdAt": "2020-11-25T09:08:17.251Z",
          "updatedAt": "2020-11-25T09:08:17.251Z",
          "tagList": [
             "mocking"
          ],
          "description": "aa",
          "author": {
             "username": "sharadllo",
             "bio": null,
             "image": "https://static.productionready.io/images/smiley-cyrus.jpg",
             "following": false
          },
          "favorited": true,
          "favoritesCount": 1
       }
    ],
    "articlesCount": 1
 }
